myAlarm.vcd
$date
  Sat Mar 26 11:17:27 2016
$end
$version
  GHDL v0
$end
$timescale
  1 fs
$end
$var reg 1 ! ina $end
$var reg 1 " inb $end
$var reg 1 # inc $end
$var reg 1 $ outa $end
$var reg 1 % outb $end
$var reg 1 & outc $end
$var reg 1 ' alarm $end
$scope module uut $end
$var reg 1 ( alarm $end
$var reg 1 ) ina $end
$var reg 1 * inb $end
$var reg 1 + inc $end
$var reg 1 , outa $end
$var reg 1 - outb $end
$var reg 1 . outc $end
$upscope $end
$enddefinitions $end
#0
0!
0"
0#
0$
0%
0&
0'
0(
0)
0*
0+
0,
0-
0.
#10000000
1&
1.
#20000000
1%
0&
1-
0.
#30000000
1&
1.
#40000000
1$
0%
0&
1,
0-
0.
#50000000
1&
1.
#60000000
1%
0&
1-
0.
#70000000
1&
1.
#80000000
1#
0$
0%
0&
1+
0,
0-
0.
#90000000
1&
1'
1(
1.
#100000000
1%
0&
1-
0.
#110000000
1&
1.
#120000000
1$
0%
0&
1,
0-
0.
#130000000
1&
1.
#140000000
1%
0&
1-
0.
#150000000
1&
1.
#160000000
1"
0#
0$
0%
0&
0'
0(
1*
0+
0,
0-
0.
#170000000
1&
1'
1(
1.
#180000000
1%
0&
1-
0.
#190000000
1&
1.
#200000000
1$
0%
0&
1,
0-
0.
#210000000
1&
1.
#220000000
1%
0&
1-
0.
#230000000
1&
1.
#240000000
1#
0$
0%
0&
0'
0(
1+
0,
0-
0.
#250000000
1&
1'
1(
1.
#260000000
1%
0&
1-
0.
#270000000
1&
1.
#280000000
1$
0%
0&
1,
0-
0.
#290000000
1&
1.
#300000000
1%
0&
1-
0.
#310000000
1&
1.
#320000000
1!
0"
0#
0$
0%
0&
0'
0(
1)
0*
0+
0,
0-
0.
#330000000
1&
1'
1(
1.
#340000000
1%
0&
1-
0.
#350000000
1&
1.
#360000000
1$
0%
0&
1,
0-
0.
#370000000
1&
1.
#380000000
1%
0&
1-
0.
#390000000
1&
1.
#400000000
1#
0$
0%
0&
0'
0(
1+
0,
0-
0.
#410000000
1&
1'
1(
1.
#420000000
1%
0&
1-
0.
#430000000
1&
1.
#440000000
1$
0%
0&
1,
0-
0.
#450000000
1&
1.
#460000000
1%
0&
1-
0.
#470000000
1&
1.
#480000000
1"
0#
0$
0%
0&
0'
0(
1*
0+
0,
0-
0.
#490000000
1&
1'
1(
1.
#500000000
1%
0&
1-
0.
#510000000
1&
1.
#520000000
1$
0%
0&
1,
0-
0.
#530000000
1&
1.
#540000000
1%
0&
1-
0.
#550000000
1&
1.
#560000000
1#
0$
0%
0&
0'
0(
1+
0,
0-
0.
#570000000
1&
1'
1(
1.
#580000000
1%
0&
1-
0.
#590000000
1&
1.
#600000000
1$
0%
0&
1,
0-
0.
#610000000
1&
1.
#620000000
1%
0&
1-
0.
#630000000
1&
1.
